{
	"name" : "local_notifications",
	"version" : "1.0.0",
	"description" : "This module enables settings up Local Notifications.",
	"author" : {
		"name" 	: "Jonathan Hattab",
		"email" : "jonathanhattab@madjoh.com"
	},
	"dependencies" : {
		"custom_events" : "1.0",
		"wording" 		: "1.0"
	},
	"devDependencies" : {}
}